4 1 2 2 5 1 0 0 7 0	(test-1)
7 0 3 0 2 2 7 4 7 4	(test-2)
4 1 2 4 8 2 0 7 4 4	(test-3)
4 1 2 4 7 8 8 0 1	(test-4)
7 1 2 1 4 5 7 0 0 8	(test-5)
7 1 2 0 7 8 0 5 8 8	(test-6)
7 1 2 2 5 1 3 7 7 8	(test-7)
7 5 7 0 2 2 1 6 0 8	(test-8)
8 8 8 4 8 9 0 7 2 1	(test-9)
8 0 0 4 6 7 0 1 8 0	(test-10)
8 0 0 2 7 5 8 7 6 6	(test-11)
7 1 2 0 5 7 0 1 8 2	(test-12)
0 5 2 0 7 8 8	(test-13)
7 0 4 8 7 4 9 7 6 0	(test-14)
8 6 6 7 5 9 0 0 0 5	(test-15)
2 4 1 0 0 7 8 1 4 5	(test-16)
4 1 2 7 8 1 7 5 9 0	(test-17)
8 1 4 3 0 1 4 3 5 8	(test-18)
7 0 4 7 6 0 7 1 0 1	(test-19)
4 0 8 4 7 0 0 1 2 8	(test-20)
6 7 5 7 0 3 4 2 1 2	(test-21)
2 1 8 0 3 0 5 4 8 4	(test-22)
7 4 2 0 3 0 5 1 4 5	(test-23)
2 1 5 4 5 4 6 6 1 2	(test-24)
7 1 8 7 8 2 1 8 9 8	(test-25)
