9 1 1 0 3 4 8 2 5 8	(test-1)
8 0 0 2 6 6 2 4 1 2 4 0 5 2 7 0 0 2 8	(test-2)
8 2 1 0 0 2 1 2 7 6 7 7 3 2 4 2 8	(test-3)
7 2 3 8 7 4 0 3 2 3 7 3 8 2 1 9 0 3 8 7 7 1	(test-4)
2 2 1 2 8	(test-5)
1 2 3 2 4 2 5 6 0 8	(test-6)
6 7 8 9 0 3 7 0 0 2 3 2 4 7 4	(test-7)
7 0 0 2 1 8 7 4 7 3 0 4 7 0 1 2 4 8	(test-8)
7 5 5 5 5 5 8	(test-9)
7 3 7 1 0 0 2 7 4 9 2 1 2	(test-10)
