acbdvised	advised:2	advice:4	o:10	a:10	time_taken:9.71427702904
advicu	advice:1	advil:2	advised:3	advocate:4	time_taken:7.54606604576
agsk	ask:1	ash:2	also:2	as:2	time_taken:5.06736588478
ajlu	able:2	alum:2	al:2	all:2	time_taken:3.55063009262
alkdvice	alaine:4	aldrin:4	alvita:4	alicea:4	time_taken:16.9039502144
ander	ardor:2	antes:2	and:2	wanders:2	time_taken:6.86391997337
andharaka	mandharaka:1	mandhara:3	o:10	a:10	time_taken:20.3498620987
anotzer	another:1	ante:3	antes:3	antlers:3	time_taken:16.0488419533
aosk	ask:1	lost:2	zoss:2	posa:2	time_taken:4.56480503082
ax	atx:1	max:1	am:1	al:1	time_taken:0.699272871017
axgg	ang:2	aga:2	aue:3	aten:3	time_taken:4.05134487152
ayd	and:1	aue:2	my:2	atx:2	time_taken:1.50150203705
ban	bank:1	can:1	man:1	an:1	time_taken:1.59212613106
barbehr	barber:1	barbers:2	barely:3	babe:3	time_taken:12.936661005
becaue	became:1	because:1	beckum:2	beautiful:6	time_taken:13.4814009666
bfring	bring:1	brings:2	hiring:2	caring:2	time_taken:10.5238368511
bgood	good:1	flood:2	wood:2	food:2	time_taken:6.85942602158
bome	come:1	bowe:1	some:1	bame:1	time_taken:4.08394289017
boocn	boon:1	broce:2	noon:2	booze:2	time_taken:7.1562359333
boxon	boon:1	boren:2	coxen:2	boyum:3	time_taken:6.66641688347
ca	can:1	aca:1	c1:1	a:1	time_taken:0.524473905563
cdut	cut:1	adult:2	clum:2	cart:2	time_taken:3.7245528698
chakmadhara	chakradhara:1	o:12	a:12	e:12	time_taken:22.3234419823
chldren	children:1	chided:3	caldrello:4	o:8	time_taken:12.1491279602
ckstes	castles:2	kites:2	coster:2	cases:2	time_taken:10.1792349815
clotles	clothes:1	clotted:2	coote:3	cloth:3	time_taken:13.7047600746
clth	cloth:1	clum:2	clutch:2	city:2	time_taken:4.4632191658
cnmfortably	comfortably:1	comfortable:2	o:12	a:12	time_taken:30.2916181087
codmfortabyle	comfortable:2	comfortably:3	o:14	a:14	time_taken:34.841988802
conkult	consult:1	conklin:3	consulting:4	conville:4	time_taken:14.2947778702
conspiraxpms	conspiracies:3	o:13	a:13	e:13	time_taken:25.5199170113
consula	consult:1	consolata:3	consulting:4	o:8	time_taken:12.30803895
consulu	consult:1	consulting:4	consolata:4	o:8	time_taken:13.0255851746
cu	nu:1	ju:1	c1:1	cut:1	time_taken:0.495990991592
dayes	dayley:2	damps:2	davee:2	ways:2	time_taken:6.82109808922
dhear	dear:1	deas:2	head:2	heart:2	time_taken:7.22361207008
dits	its:1	wits:1	kids:2	vito:2	time_taken:4.16624498367
dobe	doble:1	doby:1	kobes:2	dodd:2	time_taken:3.53453397751
doe	do:1	die:1	does:1	dodd:2	time_taken:1.51602482796
doth	both:1	dodd:2	mots:2	dour:2	time_taken:3.79634404182
dted	died:1	aten:2	dodd:2	leed:2	time_taken:3.82048392296
earslier	earlier:1	earlier's:3	o:9	a:9	time_taken:15.6341149807
eave	gave:1	leave:1	weave:1	eve:1	time_taken:3.56102490425
eeds	feeds:1	needs:1	deeds:1	weeds:1	time_taken:3.83165717125
erishesp	perishes:2	crises:3	rishel:3	o:9	time_taken:15.3022019863
etra	petra:1	extra:1	petru:2	erk:2	time_taken:3.61159396172
ever	every:1	even:1	eve:1	never:1	time_taken:3.62601208687
everyo	every:1	very:2	evermore:3	everette:4	time_taken:9.4418721199
exilv	exile:1	exist:2	exalts:3	eiley:3	time_taken:6.7765147686
fdiamnds	diamonds:2	damned:4	dian:4	diagnoses:5	time_taken:16.2030439377
feollowing	following:1	o:11	a:11	e:11	time_taken:19.6887259483
fhmwy	zimny:3	army:3	my:3	how:3	time_taken:7.13519406319
fom	for:1	rom:1	from:1	four:2	time_taken:1.70253014565
fpeople	people:1	o:8	a:8	e:8	time_taken:12.9909918308
fpoor	poor:1	four:2	for:2	flood:2	time_taken:6.67496681213
fqr	for:1	four:2	air:2	ferd:2	time_taken:1.69278287888
framves	frames:1	kramme:3	framers':3	trammel:3	time_taken:12.8599588871
frends	friends:1	friend:2	fend:2	wrench:3	time_taken:9.17339205742
frien	friend:1	grief:2	freier:2	freel:2	time_taken:6.50105404854
frkendu	friend:2	friends:2	fend:3	frenzel:4	time_taken:12.9377381802
froe	broe:1	from:1	kroc:2	for:2	time_taken:3.83602905273
fromo	from:1	rom:2	froman:2	dromon:2	time_taken:6.74759888649
gclothes	clothes:1	galoshes:2	clotted:3	cloth:3	time_taken:16.1130628586
gfqey	glues:3	grief:3	give:3	greet:3	time_taken:7.13527679443
giganic	gigantic:1	ligands:3	gignoux:4	gianotti:5	time_taken:12.9502110481
gimve	give:1	gimme:1	time:2	given:2	time_taken:7.43089294434
givej	give:1	given:1	gave:2	live:2	time_taken:7.26994204521
givjn	given:1	give:2	gilbo:3	sivy:3	time_taken:6.8876080513
grexed	greed:1	grete:2	greet:2	green:2	time_taken:9.1399641037
hae	hah:1	hao:1	had:1	has:1	time_taken:1.61101698875
happil	happily:1	happy:2	happens:3	happened:4	time_taken:9.53229284286
happilyye	happily:2	o:10	a:10	e:10	time_taken:17.7076439857
haven'ptv	haven't:2	o:10	a:10	e:10	time_taken:16.871366024
hea	head:1	hua:1	her:1	hen:1	time_taken:0.800701141357
heaod	head:1	heagy:2	hao:2	had:2	time_taken:3.64939308167
hele	here:1	zele:1	helke:1	help:1	time_taken:1.94907808304
hereaftexr	hereafter:1	o:11	a:11	e:11	time_taken:10.66121912
hid	had:1	hud:1	his:1	hix:1	time_taken:0.747021913528
hiis	his:1	kids:2	pius:2	ho's:2	time_taken:1.85284590721
homexcrd	homeward:2	homburg:4	home:4	however:4	time_taken:8.16819906235
hpi	how:2	gyi:2	spit:2	hupe:2	time_taken:0.775370836258
hqe	he:1	aue:2	here:2	me:2	time_taken:0.789229154587
hs	is:1	has:1	his:1	us:1	time_taken:0.235081911087
hthelp	help:2	teel:3	them:3	they:3	time_taken:4.67867517471
hwie	here:2	hupe:2	cwik:2	we:2	time_taken:2.2600941658
hzaim	fraim:2	him:2	hail:2	haake:3	time_taken:3.43434691429
ife	if:1	wife:1	life:1	lifo:2	time_taken:0.80437207222
inister	sinister:1	minister:1	ministers:2	incite:3	time_taken:6.33863401413
instftead	instead:2	institute:4	instone:4	instantly:7	time_taken:9.6209859848
inviyte	invite:1	incite:2	invest:3	invirase:4	time_taken:6.10381913185
ive	give:1	live:1	ivy:1	eve:1	time_taken:0.780930042267
jto	to:1	atx:2	do:2	coo:2	time_taken:0.763387918472
kinagship	kingship:1	o:10	a:10	e:10	time_taken:9.968501091
kingdomj	kingdom:1	kingdon:2	o:9	a:9	time_taken:8.31654405594
kjcingdzom	kingdom:3	kingdon:4	o:11	a:11	time_taken:10.6922369003
kstory	story:1	tory:2	storr:2	sturc:3	time_taken:4.72029185295
leadswt	leads:2	heads:3	leaders':4	leaseway's:7	time_taken:6.10297012329
leerne	learner:2	learned:2	lepere:2	leed:3	time_taken:4.84735608101
lfe	le:1	life:1	aue:2	lore:2	time_taken:0.784644842148
lied	leed:1	died:1	flied:1	lived:1	time_taken:1.94659614563
livi	live:1	give:2	sivy:2	lifo:2	time_taken:2.41099715233
maid	said:1	mai:1	make:2	maxx:2	time_taken:2.01329398155
maiy	mai:1	many:1	mary:1	make:2	time_taken:1.90331816673
mandhtraa	mandharaka:2	mandhara:2	mandracchia:7	o:10	time_taken:10.7450649738
mgt	met:1	ort:2	mew:2	must:2	time_taken:0.797586202621
mhe	me:1	the:1	she:1	he:1	time_taken:0.984177112579
mndharaka	mandharaka:1	mandhara:3	o:10	a:10	time_taken:9.71552109718
need	leed:1	needs:1	feed:1	heed:1	time_taken:1.97732305527
nif	if:1	nit:1	nigg:2	new:2	time_taken:0.779073953629
nvertheess	nevertheless:2	o:11	a:11	e:11	time_taken:10.7481851578
oe	we:1	o:1	me:1	be:1	time_taken:0.255079030991
og	o:1	on:1	of:1	or:1	time_taken:0.251703023911
onse	one:1	once:1	fonte:2	onto:2	time_taken:1.78123092651
oof	of:1	hoof:1	off:1	ort:2	time_taken:0.776694059372
oz	o:1	on:1	of:1	or:1	time_taken:0.250882148743
pandafva	pandava:1	panda:3	o:9	a:9	time_taken:7.54108405113
peopl	people:1	poppe:3	propst:3	peoria's:5	time_taken:3.49001693726
pleare	please:1	leave:2	pearl:2	place:2	time_taken:4.53708219528
qent	went:1	vent:1	want:2	end:2	time_taken:1.86485695839
rapied	ranked:2	raphel:2	raked:2	rabin:3	time_taken:4.65773296356
re	we:1	me:1	be:1	are:1	time_taken:0.236238002777
ree	tree:1	rev:1	ret:1	new:2	time_taken:0.773552894592
riend	friend:1	yield:2	mieno:2	died:2	time_taken:3.2036678791
rplots	plots:1	roots:2	ploss:2	spot:3	time_taken:4.45571613312
sac	sad:1	say:1	saw:1	las:2	time_taken:0.987090110779
safid	said:1	sail:2	sabia:2	sad:2	time_taken:3.27026605606
sarma'	sarma's:1	sara's:2	sharman:2	carmack:3	time_taken:4.46759200096
sarma'n	sarma's:1	sara's:2	o:8	a:8	time_taken:6.61969804764
sbvgl	smigel:3	sivy:3	shawl:3	savell:3	time_taken:3.39950799942
scowd	scorn:2	scoff:2	show:2	scots:2	time_taken:3.20445489883
shfnkaracharya	shankaracharya:1	o:15	a:15	e:15	time_taken:16.9390821457
sird	sir:1	sivy:2	air:2	girl:2	time_taken:1.80444192886
sjtrve	starve:2	stave:2	stove:2	strike:3	time_taken:4.58842992783
skid	said:1	kids:2	seide:2	kit:2	time_taken:1.83251810074
sma	sea:1	soma:1	cmx:2	me:2	time_taken:0.748319864273
sogma	soma:1	sonya:2	moga:2	soza:2	time_taken:3.26952886581
soprwxhere	somewhere:3	southern:5	sprinters:5	southernnet's:10	time_taken:10.3261380196
souther	southern:1	southall:3	o:8	a:8	time_taken:6.02861595154
specias	special:1	specify:2	speciality:4	o:8	time_taken:6.33516788483
starteru	staters:2	started:2	startups:3	starve:3	time_taken:8.16343593597
stickw	sticks:1	stinks:2	stocky:2	stickels:3	time_taken:4.85824608803
stold	told:1	stove:2	story:2	strole:2	time_taken:3.54598808289
suyvarnasiddhi	suvarnasiddhi:1	o:15	a:15	e:15	time_taken:15.2885491848
tat	that:1	at:1	las:2	take:2	time_taken:0.723742008209
tatally	totally:1	atalaya:3	tagalog:3	matalin:3	time_taken:6.70929908752
tbhat	that:1	thad:2	what:2	kohan:3	time_taken:3.37345099449
telli	tells:1	belli:1	tell:1	tello:1	time_taken:3.29297995567
teo	to:1	two:1	deo:1	too:1	time_taken:0.832555055618
tfe	the:1	aue:2	me:2	them:2	time_taken:0.993833065033
th	the:1	to:1	my:2	them:2	time_taken:0.292057037354
thajt	that:1	thad:2	what:2	thaler:3	time_taken:3.07663393021
theb	them:1	the:1	they:1	tree:2	time_taken:1.88377285004
theje	there:1	here:2	where:2	tree:2	time_taken:3.29650115967
therefoze	therefore:1	o:10	a:10	e:10	time_taken:10.077231884
therefre	therefore:1	there:3	o:9	a:9	time_taken:7.66668009758
thie	the:1	this:1	them:2	thad:2	time_taken:1.97409820557
thnm	them:1	the:2	thad:2	tani:2	time_taken:1.89648318291
thqe	the:1	uhle:2	them:2	take:2	time_taken:1.81592488289
througahout	throughout:1	o:12	a:12	e:12	time_taken:11.8606250286
thv	the:1	them:2	they:2	thad:2	time_taken:0.783575057983
thwat's	that's:1	hwan's:2	that:3	thwarted:3	time_taken:6.23157715797
toe	the:1	to:1	too:1	told:2	time_taken:0.774369001389
tome	time:1	come:1	some:1	home:1	time_taken:1.87291002274
tpe	the:1	aue:2	me:2	them:2	time_taken:0.806465864182
treve	tree:1	true:2	strege:2	there:2	time_taken:3.47941803932
tvee	tree:1	even:2	ovex:2	them:2	time_taken:1.94015693665
tz	to:1	my:2	atx:2	too:2	time_taken:0.284203052521
uingdos	kingdon:2	kingdom:2	lindow:3	sindoni:4	time_taken:6.38144302368
ut	it:1	up:1	cut:1	us:1	time_taken:0.247364044189
wa	we:1	wah:1	way:1	was:1	time_taken:0.263288974762
wan	warn:1	want:1	wah:1	way:1	time_taken:0.819014072418
wbeaver	weaver:1	weave:2	leave:3	beagen:3	time_taken:6.39805102348
weatverb	weaver:2	weather's:3	leathers:3	weave:3	time_taken:8.03649902344
weavegr	weaver:1	weave:2	leave:3	wave:3	time_taken:6.52463507652
weeave	weave:1	weaver:2	weeds:3	weeks:3	time_taken:4.65313482285
wentbi	went:2	want:3	wanta:3	dentin:3	time_taken:4.73008489609
wentr	went:1	want:2	weng:2	wenda:2	time_taken:3.46030306816
widfe	wife:1	wigle:2	ridge:2	wise:2	time_taken:3.24743700027
wifc	wife:1	lifo:2	if:2	waif:2	time_taken:1.95310688019
wifp	wife:1	lifo:2	if:2	waif:2	time_taken:1.85726594925
wikll	will:1	weikel:2	wigle:2	kill:2	time_taken:3.32409405708
wil	will:1	wild:1	cwik:2	we:2	time_taken:0.787118911743
willt	will:1	willow:2	wigle:2	kill:2	time_taken:3.37412285805
wilyl	will:1	kill:2	fill:2	wild:2	time_taken:3.72683906555
wis	is:1	bis:1	was:1	wits:1	time_taken:0.789991140366
wizs	wits:1	kids:2	pius:2	kies:2	time_taken:1.85221099854
wld	wild:1	end:2	god:2	we:2	time_taken:0.80708694458
wo	do:1	we:1	o:1	no:1	time_taken:0.226109027863
woale	mosle:2	wigle:2	wool:2	doble:2	time_taken:3.12916207314
woce	lore:2	ooze:2	we:2	more:2	time_taken:1.92141008377
wofen	women:1	woman:2	wooden:2	wooten:2	time_taken:3.19752621651
woodp	woods:1	wood:1	wooden:2	wool:2	time_taken:3.42708206177
wooizd	wood:2	woods:3	wooden:3	booed:3	time_taken:4.47151684761
wouuld	would:1	could:2	loudly:3	wola:3	time_taken:4.66501712799
xagreeing	agreeing:1	o:10	a:10	e:10	time_taken:9.76225209236
xdiseaappeaed	disappeared:4	o:14	a:14	e:14	time_taken:13.8415801525
xilling	killing:1	ailing:2	millin:2	dillin:2	time_taken:6.38210701942
yajlso	also:2	yarosh:3	yahoo:3	yawns:3	time_taken:4.56919813156
yances	dances:1	antes:2	lancet:2	sanches:2	time_taken:4.60112094879
yanksha	yaksha:1	bankshare:3	yank:3	o:8	time_taken:6.57543683052
yaou	you:1	yank:2	hao:2	yahoo:2	time_taken:1.75112915039
ye	we:1	me:1	be:1	eye:1	time_taken:0.236673116684
yksha	yaksha:1	sasha:2	kehl:3	kohan:3	time_taken:3.26198816299
yscr	your:2	yuck:2	ryser:2	sir:2	time_taken:1.97195410728
zer	zeh:1	her:1	new:2	here:2	time_taken:0.757894039154
zforest	forest:1	fresh:3	stores':3	flores:3	time_taken:6.46314406395
zixs	kids:2	pius:2	zoss:2	kies:2	time_taken:1.85742497444
