21	there was weaver called mandharaka ing southern ivy
21	there wash weaver called mandharaka southernnet
21	there wasp weaver called mandharaka southernn
21	there was weaver called mandharaka ing southernnet
21	there wash weaver called mandharaka ing southern its
21	there wash weaver called mandharaka ing southern
21	there was weaver called mandharaka ing southern ty
21	there wasp weaver called mandharaka southern ite
21	there was weaver called mandharaka southern ily
21	there wasp weaver called mandharaka southern itt
21	there was weaver called mandharaka southern
21	there wash weaver called mandharaka southern itt
21	there wasp weaver called mandharaka ing southern ivy
21	there wash weaver called mandharaka southern ite
21	there wash weaver called mandharaka southern ita
21	there was weaver called mandharaka southern its
21	there wasp weaver called mandharaka ing southernnet
21	there wash weaver called mandharaka southern ty
21	there was weaver called mandharaka southern ty
21	there wasp weaver called mandharaka ing southernn
in_count =  8283
out_count =  133743
total time elapsed: 64.758199