20	there was weaver called mandharaka ing southern ivy
20	there wash weaver called mandharaka southernnet
20	there wasp weaver called mandharaka southernn
20	there was weaver called mandharaka ing southernnet
20	there wash weaver called mandharaka ing southern its
20	there was weaver called mandharaka ing southern ily
20	there wash weaver called mandharaka ing southern
20	there was weaver called mandharaka ing southern ty
20	there wasp weaver called mandharaka southern itt
20	there was weaver called mandharaka southern
20	there wash weaver called mandharaka southern itt
20	there wasp weaver called mandharaka ing southern ivy
20	there wash weaver called mandharaka southern ite
20	there wash weaver called mandharaka southern ita
20	there was weaver called mandharaka southern its
20	there wasp weaver called mandharaka ing southernnet
20	there wash weaver called mandharaka southern ty
20	there was weaver called mandharaka southern ty
20	there wasp weaver called mandharaka ing southernn
20	there wasp weaver called mandharaka southern
in_count =  6646
out_count =  135317
